[
  {
    "id": "wooden_sword",
    "name": "Epee en bois",
    "image": "Wooden_Sword.png",
    "description": "Augmente de 2 les DPC",
    "type": "equipment",
    "typeeffect": "DPC",
    "cout": 1000,
    "damage": 2,
    "operator": "+",
    "order": 1
  },
  {
    "id": "stone_sword",
    "name": "Epee en pierre",
    "image": "Stone_Sword.png",
    "description": "Augmente de 4 les DPC",
    "type": "equipment",
    "typeeffect": "DPC",
    "cout": 5000,
    "damage": 4,
    "operator": "+",
    "order": 2
  },
  {
    "id": "iron_sword",
    "name": "Epee en fer",
    "image": "Iron_Sword.png",
    "description": "Augmente de 6 les DPC",
    "type": "equipment",
    "typeeffect": "DPC",
    "cout": 10000,
    "damage": 6,
    "operator": "+",
    "order": 3
  },
  {
    "id": "goldden_sword",
    "name": "Epee en or",
    "image": "Golden_Sword.png",
    "description": "Augmente de 8 les DPC",
    "type": "equipment",
    "typeeffect": "DPC",
    "cout": 25000,
    "damage": 8,
    "operator": "+",
    "order": 4
  },
  {
    "id": "diamond_sword",
    "name": "Epee en diamants",
    "image": "Diamond_Sword.png",
    "description": "Augmente de 10 les DPC",
    "type": "equipment",
    "typeeffect": "DPC",
    "cout": 50000,
    "damage": 10,
    "operator": "+",
    "order": 5
  },
  {
    "id": "ocelot",
    "name": "Ocelot",
    "image": "Ocelot.png",
    "description": "Augmente de 10 les DPS",
    "type": "partner",
    "typeeffect": "DPS",
    "cout": 2500,
    "damage": 10,
    "operator": "+",
    "order": 1
  },
  {
    "id": "villageois",
    "name": "Villageois",
    "image": "Villageois.png",
    "description": "Augmente de 20 les DPS",
    "type": "partner",
    "typeeffect": "DPS",
    "cout": 10000,
    "damage": 20,
    "operator": "+",
    "order": 2
  },
  {
    "id": "butin1",
    "name": "Butin_I",
    "image": "Livre.png",
    "description": "Augmente les chances d'avoir des diamants de 10 %.",
    "type": "enchantment",
    "typeeffect": "diamant",
    "cout": 200,
    "damage": 10,
    "operator": "%",
    "order": 1
  },
  {
    "id": "butin2",
    "name": "Butin_II",
    "image": "Livre.png",
    "description": "Augmente les chances d'avoir des diamants de 20 %.",
    "type": "enchantment",
    "typeeffect": "diamant",
    "cout": 500,
    "damage": 20,
    "operator": "%",
    "order": 2
  },
  {
    "id": "butin3",
    "name": "Butin_III",
    "image": "Livre.png",
    "description": "Augmente les chances d'avoir des diamants de 30 %.",
    "type": "enchantment",
    "typeeffect": "diamant",
    "cout": 1000,
    "damage": 30,
    "operator": "%",
    "order": 3
  },
  {
    "id": "tranchant1",
    "name": "Tranchant_I",
    "image": "Livre.png",
    "description": "Augmente de 10000 les DPC",
    "type": "enchantment",
    "typeeffect": "DPC",
    "cout": 2500,
    "damage": 10000,
    "operator": "+",
    "order": 4
  },
  {

    "id": "tranchant2",
    "name": "Tranchant_II",
    "image": "Livre.png",
    "description": "Augmente de 500000 les DPC",
    "type": "enchantment",
    "typeeffect": "DPC",
    "cout": 5000,
    "damage":500000,
    "operator": "+",
    "order": 5
  }


]